intro/vcdTool/in/counter.vcd
$date
    today
$end
$version
    counter-adc-vcd
$end
$timescale 1ns $end
$scope module counter_adc $end
$var wire 1 k clk $end
$var wire 1 p cmp $end
$var wire 10 c code $end
$upscope $end
$enddefinitions $end
#0
0k
b0000000000 c
0p
#1000
1k
b0000000001 c
#2000
0k
b0000000010 c
#3000
1k
b0000000011 c
#4000
0k
b0000000100 c
#5000
1k
b0000000101 c
#6000
0k
b0000000110 c
#7000
1k
b0000000111 c
#8000
0k
b0000001000 c
#9000
1k
b0000001001 c
#10000
0k
b0000001010 c
#11000
1k
b0000001011 c
#12000
0k
b0000001100 c
#13000
1k
b0000001101 c
#14000
0k
b0000001110 c
#15000
1k
b0000001111 c
#16000
0k
b0000010000 c
#17000
1k
b0000010001 c
#18000
0k
b0000010010 c
#19000
1k
b0000010011 c
#20000
0k
b0000010100 c
#21000
1k
b0000010101 c
#22000
0k
b0000010110 c
#23000
1k
b0000010111 c
#24000
0k
b0000011000 c
#25000
1k
b0000011001 c
#26000
0k
b0000011010 c
#27000
1k
b0000011011 c
#28000
0k
b0000011100 c
#29000
1k
b0000011101 c
#30000
0k
b0000011110 c
#31000
1k
b0000011111 c
#32000
0k
b0000100000 c
#33000
1k
b0000100001 c
#34000
0k
b0000100010 c
#35000
1k
b0000100011 c
#36000
0k
b0000100100 c
#37000
1k
b0000100101 c
#38000
0k
b0000100110 c
#39000
1k
b0000100111 c
#40000
0k
b0000101000 c
#41000
1k
b0000101001 c
#42000
0k
b0000101010 c
#43000
1k
b0000101011 c
#44000
0k
b0000101100 c
#45000
1k
b0000101101 c
#46000
0k
b0000101110 c
#47000
1k
b0000101111 c
#48000
0k
b0000110000 c
#49000
1k
b0000110001 c
#50000
0k
b0000110010 c
#51000
1k
b0000110011 c
#52000
0k
b0000110100 c
#53000
1k
b0000110101 c
#54000
0k
b0000110110 c
#55000
1k
b0000110111 c
#56000
0k
b0000111000 c
#57000
1k
b0000111001 c
#58000
0k
b0000111010 c
#59000
1k
b0000111011 c
#60000
0k
b0000111100 c
#61000
1k
b0000111101 c
#62000
0k
b0000111110 c
#63000
1k
b0000111111 c
#64000
0k
b0001000000 c
#65000
1k
b0001000001 c
#66000
0k
b0001000010 c
#67000
1k
b0001000011 c
#68000
0k
b0001000100 c
#69000
1k
b0001000101 c
#70000
0k
b0001000110 c
#71000
1k
b0001000111 c
#72000
0k
b0001001000 c
#73000
1k
b0001001001 c
#74000
0k
b0001001010 c
#75000
1k
b0001001011 c
#76000
0k
b0001001100 c
#77000
1k
b0001001101 c
#78000
0k
b0001001110 c
#79000
1k
b0001001111 c
#80000
0k
b0001010000 c
#81000
1k
b0001010001 c
#82000
0k
b0001010010 c
#83000
1k
b0001010011 c
#84000
0k
b0001010100 c
#85000
1k
b0001010101 c
#86000
0k
b0001010110 c
#87000
1k
b0001010111 c
#88000
0k
b0001011000 c
#89000
1k
b0001011001 c
#90000
0k
b0001011010 c
#91000
1k
b0001011011 c
#92000
0k
b0001011100 c
#93000
1k
b0001011101 c
#94000
0k
b0001011110 c
#95000
1k
b0001011111 c
#96000
0k
b0001100000 c
#97000
1k
b0001100001 c
#98000
0k
b0001100010 c
#99000
1k
b0001100011 c
#100000
0k
b0001100100 c
#101000
1k
b0001100101 c
#102000
0k
b0001100110 c
#103000
1k
b0001100111 c
#104000
0k
b0001101000 c
#105000
1k
b0001101001 c
#106000
0k
b0001101010 c
#107000
1k
b0001101011 c
#108000
0k
b0001101100 c
#109000
1k
b0001101101 c
#110000
0k
b0001101110 c
#111000
1k
b0001101111 c
#112000
0k
b0001110000 c
#113000
1k
b0001110001 c
#114000
0k
b0001110010 c
#115000
1k
b0001110011 c
#116000
0k
b0001110100 c
#117000
1k
b0001110101 c
#118000
0k
b0001110110 c
#119000
1k
b0001110111 c
#120000
0k
b0001111000 c
#121000
1k
b0001111001 c
#122000
0k
b0001111010 c
#123000
1k
b0001111011 c
#124000
0k
b0001111100 c
#125000
1k
b0001111101 c
#126000
0k
b0001111110 c
#127000
1k
b0001111111 c
#128000
0k
b0010000000 c
#129000
1k
b0010000001 c
#130000
0k
b0010000010 c
#131000
1k
b0010000011 c
#132000
0k
b0010000100 c
#133000
1k
b0010000101 c
#134000
0k
b0010000110 c
#135000
1k
b0010000111 c
#136000
0k
b0010001000 c
#137000
1k
b0010001001 c
#138000
0k
b0010001010 c
#139000
1k
b0010001011 c
#140000
0k
b0010001100 c
#141000
1k
b0010001101 c
#142000
0k
b0010001110 c
#143000
1k
b0010001111 c
#144000
0k
b0010010000 c
#145000
1k
b0010010001 c
#146000
0k
b0010010010 c
#147000
1k
b0010010011 c
#148000
0k
b0010010100 c
#149000
1k
b0010010101 c
#150000
0k
b0010010110 c
#151000
1k
b0010010111 c
#152000
0k
b0010011000 c
#153000
1k
b0010011001 c
#154000
0k
b0010011010 c
#155000
1k
b0010011011 c
#156000
0k
b0010011100 c
#157000
1k
b0010011101 c
#158000
0k
b0010011110 c
#159000
1k
b0010011111 c
#160000
0k
b0010100000 c
#161000
1k
b0010100001 c
#162000
0k
b0010100010 c
#163000
1k
b0010100011 c
#164000
0k
b0010100100 c
#165000
1k
b0010100101 c
#166000
0k
b0010100110 c
#167000
1k
b0010100111 c
#168000
0k
b0010101000 c
#169000
1k
b0010101001 c
#170000
0k
b0010101010 c
#171000
1k
b0010101011 c
#172000
0k
b0010101100 c
#173000
1k
b0010101101 c
#174000
0k
b0010101110 c
#175000
1k
b0010101111 c
#176000
0k
b0010110000 c
#177000
1k
b0010110001 c
#178000
0k
b0010110010 c
#179000
1k
b0010110011 c
#180000
0k
b0010110100 c
#181000
1k
b0010110101 c
#182000
0k
b0010110110 c
#183000
1k
b0010110111 c
#184000
0k
b0010111000 c
#185000
1k
b0010111001 c
#186000
0k
b0010111010 c
#187000
1k
b0010111011 c
#188000
0k
b0010111100 c
#189000
1k
b0010111101 c
#190000
0k
b0010111110 c
#191000
1k
b0010111111 c
#192000
0k
b0011000000 c
#193000
1k
b0011000001 c
#194000
0k
b0011000010 c
#195000
1k
b0011000011 c
#196000
0k
b0011000100 c
#197000
1k
b0011000101 c
#198000
0k
b0011000110 c
#199000
1k
b0011000111 c
#200000
0k
b0011001000 c
#201000
1k
b0011001001 c
#202000
0k
b0011001010 c
#203000
1k
b0011001011 c
#204000
0k
b0011001100 c
#205000
1k
b0011001101 c
#206000
0k
b0011001110 c
#207000
1k
b0011001111 c
#208000
0k
b0011010000 c
#209000
1k
b0011010001 c
#210000
0k
b0011010010 c
#211000
1k
b0011010011 c
#212000
0k
b0011010100 c
#213000
1k
b0011010101 c
#214000
0k
b0011010110 c
#215000
1k
b0011010111 c
#216000
0k
b0011011000 c
#217000
1k
b0011011001 c
#218000
0k
b0011011010 c
#219000
1k
b0011011011 c
#220000
0k
b0011011100 c
#221000
1k
b0011011101 c
#222000
0k
b0011011110 c
#223000
1k
b0011011111 c
#224000
0k
b0011100000 c
#225000
1k
b0011100001 c
#226000
0k
b0011100010 c
#227000
1k
b0011100011 c
#228000
0k
b0011100100 c
#229000
1k
b0011100101 c
#230000
0k
b0011100110 c
#231000
1k
b0011100111 c
#232000
0k
b0011101000 c
#233000
1k
b0011101001 c
#234000
0k
b0011101010 c
#235000
1k
b0011101011 c
#236000
0k
b0011101100 c
#237000
1k
b0011101101 c
#238000
0k
b0011101110 c
#239000
1k
b0011101111 c
#240000
0k
b0011110000 c
#241000
1k
b0011110001 c
#242000
0k
b0011110010 c
#243000
1k
b0011110011 c
#244000
0k
b0011110100 c
#245000
1k
b0011110101 c
#246000
0k
b0011110110 c
#247000
1k
b0011110111 c
#248000
0k
b0011111000 c
#249000
1k
b0011111001 c
#250000
0k
b0011111010 c
#251000
1k
b0011111011 c
#252000
0k
b0011111100 c
#253000
1k
b0011111101 c
#254000
0k
b0011111110 c
#255000
1k
b0011111111 c
#256000
0k
b0100000000 c
#257000
1k
b0100000001 c
#258000
0k
b0100000010 c
#259000
1k
b0100000011 c
#260000
0k
b0100000100 c
#261000
1k
b0100000101 c
#262000
0k
b0100000110 c
#263000
1k
b0100000111 c
#264000
0k
b0100001000 c
#265000
1k
b0100001001 c
#266000
0k
b0100001010 c
#267000
1k
b0100001011 c
#268000
0k
b0100001100 c
#269000
1k
b0100001101 c
#270000
0k
b0100001110 c
#271000
1k
b0100001111 c
#272000
0k
b0100010000 c
#273000
1k
b0100010001 c
#274000
0k
b0100010010 c
#275000
1k
b0100010011 c
#276000
0k
b0100010100 c
#277000
1k
b0100010101 c
#278000
0k
b0100010110 c
#279000
1k
b0100010111 c
#280000
0k
b0100011000 c
#281000
1k
b0100011001 c
#282000
0k
b0100011010 c
#283000
1k
b0100011011 c
#284000
0k
b0100011100 c
#285000
1k
b0100011101 c
#286000
0k
b0100011110 c
#287000
1k
b0100011111 c
#288000
0k
b0100100000 c
#289000
1k
b0100100001 c
#290000
0k
b0100100010 c
#291000
1k
b0100100011 c
#292000
0k
b0100100100 c
#293000
1k
b0100100101 c
#294000
0k
b0100100110 c
#295000
1k
b0100100111 c
#296000
0k
b0100101000 c
#297000
1k
b0100101001 c
#298000
0k
b0100101010 c
#299000
1k
b0100101011 c
#300000
0k
b0100101100 c
#301000
1k
b0100101101 c
#302000
0k
b0100101110 c
#303000
1k
b0100101111 c
#304000
0k
b0100110000 c
#305000
1k
b0100110001 c
#306000
0k
b0100110010 c
#307000
1k
b0100110011 c
#308000
0k
b0100110100 c
#309000
1k
b0100110101 c
#310000
0k
b0100110110 c
#311000
1k
b0100110111 c
#312000
0k
b0100111000 c
#313000
1k
b0100111001 c
#314000
0k
b0100111010 c
#315000
1k
b0100111011 c
#316000
0k
b0100111100 c
#317000
1k
b0100111101 c
#318000
0k
b0100111110 c
#319000
1k
b0100111111 c
#320000
0k
b0101000000 c
#321000
1k
b0101000001 c
#322000
0k
b0101000010 c
#323000
1k
b0101000011 c
#324000
0k
b0101000100 c
#325000
1k
b0101000101 c
#326000
0k
b0101000110 c
#327000
1k
b0101000111 c
#328000
0k
b0101001000 c
#329000
1k
b0101001001 c
#330000
0k
b0101001010 c
#331000
1k
b0101001011 c
#332000
0k
b0101001100 c
#333000
1k
b0101001101 c
#334000
0k
b0101001110 c
#335000
1k
b0101001111 c
#336000
0k
b0101010000 c
#337000
1k
b0101010001 c
#338000
0k
b0101010010 c
#339000
1k
b0101010011 c
#340000
0k
b0101010100 c
#341000
1k
b0101010101 c
#342000
0k
b0101010110 c
#343000
1k
b0101010111 c
#344000
0k
b0101011000 c
#345000
1k
b0101011001 c
#346000
0k
b0101011010 c
#347000
1k
b0101011011 c
#348000
0k
b0101011100 c
#349000
1k
b0101011101 c
#350000
0k
b0101011110 c
#351000
1k
b0101011111 c
#352000
0k
b0101100000 c
#353000
1k
b0101100001 c
#354000
0k
b0101100010 c
#355000
1k
b0101100011 c
#356000
0k
b0101100100 c
#357000
1k
b0101100101 c
#358000
0k
b0101100110 c
#359000
1k
b0101100111 c
#360000
0k
b0101101000 c
#361000
1k
b0101101001 c
#362000
0k
b0101101010 c
#363000
1k
b0101101011 c
#364000
0k
b0101101100 c
#365000
1k
b0101101101 c
#366000
0k
b0101101110 c
#367000
1k
b0101101111 c
#368000
0k
b0101110000 c
#369000
1k
b0101110001 c
#370000
0k
b0101110010 c
#371000
1k
b0101110011 c
#372000
0k
b0101110100 c
#373000
1k
b0101110101 c
#374000
0k
b0101110110 c
#375000
1k
b0101110111 c
#376000
0k
b0101111000 c
#377000
1k
b0101111001 c
#378000
0k
b0101111010 c
#379000
1k
b0101111011 c
#380000
0k
b0101111100 c
#381000
1k
b0101111101 c
#382000
0k
b0101111110 c
#383000
1k
b0101111111 c
#384000
0k
b0110000000 c
#385000
1k
b0110000001 c
#386000
0k
b0110000010 c
#387000
1k
b0110000011 c
#388000
0k
b0110000100 c
#389000
1k
b0110000101 c
#390000
0k
b0110000110 c
#391000
1k
b0110000111 c
#392000
0k
b0110001000 c
#393000
1k
b0110001001 c
#394000
0k
b0110001010 c
#395000
1k
b0110001011 c
#396000
0k
b0110001100 c
#397000
1k
b0110001101 c
#398000
0k
b0110001110 c
#399000
1k
b0110001111 c
#400000
0k
b0110010000 c
#401000
1k
b0110010001 c
#402000
0k
b0110010010 c
#403000
1k
b0110010011 c
#404000
0k
b0110010100 c
#405000
1k
b0110010101 c
#406000
0k
b0110010110 c
#407000
1k
b0110010111 c
#408000
0k
b0110011000 c
#409000
1k
b0110011001 c
#410000
0k
b0110011010 c
#411000
1k
b0110011011 c
#412000
0k
b0110011100 c
#413000
1k
b0110011101 c
#414000
0k
b0110011110 c
#415000
1k
b0110011111 c
#416000
0k
b0110100000 c
#417000
1k
b0110100001 c
#418000
0k
b0110100010 c
#419000
1k
b0110100011 c
#420000
0k
b0110100100 c
#421000
1k
b0110100101 c
#422000
0k
b0110100110 c
#423000
1k
b0110100111 c
#424000
0k
b0110101000 c
#425000
1k
b0110101001 c
#426000
0k
b0110101010 c
#427000
1k
b0110101011 c
#428000
0k
b0110101100 c
#429000
1k
b0110101101 c
#430000
0k
b0110101110 c
#431000
1k
b0110101111 c
#432000
0k
b0110110000 c
#433000
1k
b0110110001 c
#434000
0k
b0110110010 c
#435000
1k
b0110110011 c
#436000
0k
b0110110100 c
#437000
1k
b0110110101 c
#438000
0k
b0110110110 c
#439000
1k
b0110110111 c
#440000
0k
b0110111000 c
#441000
1k
b0110111001 c
#442000
0k
b0110111010 c
#443000
1k
b0110111011 c
#444000
0k
b0110111100 c
#445000
1k
b0110111101 c
#446000
0k
b0110111110 c
#447000
1k
b0110111111 c
#448000
0k
b0111000000 c
#449000
1k
b0111000001 c
#450000
0k
b0111000010 c
#451000
1k
b0111000011 c
#452000
0k
b0111000100 c
#453000
1k
b0111000101 c
#454000
0k
b0111000110 c
#455000
1k
b0111000111 c
#456000
0k
b0111001000 c
#457000
1k
b0111001001 c
#458000
0k
b0111001010 c
#459000
1k
b0111001011 c
#460000
0k
b0111001100 c
#461000
1k
b0111001101 c
#462000
0k
b0111001110 c
#463000
1k
b0111001111 c
#464000
0k
b0111010000 c
#465000
1k
b0111010001 c
#466000
0k
b0111010010 c
#467000
1k
b0111010011 c
#468000
0k
b0111010100 c
#469000
1k
b0111010101 c
#470000
0k
b0111010110 c
#471000
1k
b0111010111 c
#472000
0k
b0111011000 c
#473000
1k
b0111011001 c
#474000
0k
b0111011010 c
#475000
1k
b0111011011 c
#476000
0k
b0111011100 c
#477000
1k
b0111011101 c
#478000
0k
b0111011110 c
#479000
1k
b0111011111 c
#480000
0k
b0111100000 c
#481000
1k
b0111100001 c
#482000
0k
b0111100010 c
#483000
1k
b0111100011 c
#484000
0k
b0111100100 c
#485000
1k
b0111100101 c
#486000
0k
b0111100110 c
#487000
1k
b0111100111 c
#488000
0k
b0111101000 c
#489000
1k
b0111101001 c
#490000
0k
b0111101010 c
#491000
1k
b0111101011 c
#492000
0k
b0111101100 c
#493000
1k
b0111101101 c
#494000
0k
b0111101110 c
#495000
1k
b0111101111 c
#496000
0k
b0111110000 c
#497000
1k
b0111110001 c
#498000
0k
b0111110010 c
#499000
1k
b0111110011 c
#500000
0k
b0111110100 c
#501000
1k
b0111110101 c
#502000
0k
b0111110110 c
#503000
1k
b0111110111 c
#504000
0k
b0111111000 c
#505000
1k
b0111111001 c
#506000
0k
b0111111010 c
#507000
1k
b0111111011 c
#508000
0k
b0111111100 c
#509000
1k
b0111111101 c
#510000
0k
b0111111110 c
#511000
1k
b0111111111 c
#512000
0k
b1000000000 c
#513000
1k
b1000000001 c
#514000
0k
b1000000010 c
#515000
1k
b1000000011 c
#516000
0k
b1000000100 c
#517000
1k
b1000000101 c
#518000
0k
b1000000110 c
#519000
1k
b1000000111 c
#520000
0k
b1000001000 c
#521000
1k
b1000001001 c
#522000
0k
b1000001010 c
#523000
1k
b1000001011 c
#524000
0k
b1000001100 c
#525000
1k
b1000001101 c
#526000
0k
b1000001110 c
#527000
1k
b1000001111 c
#528000
0k
b1000010000 c
#529000
1k
b1000010001 c
#530000
0k
b1000010010 c
#531000
1k
b1000010011 c
#532000
0k
b1000010100 c
#533000
1k
b1000010101 c
#534000
0k
b1000010110 c
#535000
1k
b1000010111 c
#536000
0k
b1000011000 c
#537000
1k
b1000011001 c
#538000
0k
b1000011010 c
#539000
1k
b1000011011 c
#540000
0k
b1000011100 c
#541000
1k
b1000011101 c
#542000
0k
b1000011110 c
#543000
1k
b1000011111 c
#544000
0k
b1000100000 c
#545000
1k
b1000100001 c
#546000
0k
b1000100010 c
#547000
1k
b1000100011 c
#548000
0k
b1000100100 c
#549000
1k
b1000100101 c
#550000
0k
b1000100110 c
#551000
1k
b1000100111 c
#552000
0k
b1000101000 c
#553000
1k
b1000101001 c
#554000
0k
b1000101010 c
#555000
1k
b1000101011 c
#556000
0k
b1000101100 c
#557000
1k
b1000101101 c
#558000
0k
b1000101110 c
#559000
1k
b1000101111 c
#560000
0k
b1000110000 c
#561000
1k
b1000110001 c
#562000
0k
b1000110010 c
#563000
1k
b1000110011 c
#564000
0k
b1000110100 c
#565000
1k
b1000110101 c
#566000
0k
b1000110110 c
#567000
1k
b1000110111 c
#568000
0k
b1000111000 c
#569000
1k
b1000111001 c
#570000
0k
b1000111010 c
#571000
1k
b1000111011 c
#572000
0k
b1000111100 c
#573000
1k
b1000111101 c
#574000
0k
b1000111110 c
#575000
1k
b1000111111 c
#576000
0k
b1001000000 c
#577000
1k
b1001000001 c
#578000
0k
b1001000010 c
#579000
1k
b1001000011 c
#580000
0k
b1001000100 c
#581000
1k
b1001000101 c
#582000
0k
b1001000110 c
#583000
1k
b1001000111 c
#584000
0k
b1001001000 c
#585000
1k
b1001001001 c
#586000
0k
b1001001010 c
#587000
1k
b1001001011 c
#588000
0k
b1001001100 c
#589000
1k
b1001001101 c
#590000
0k
b1001001110 c
#591000
1k
b1001001111 c
#592000
0k
b1001010000 c
#593000
1k
b1001010001 c
#594000
0k
b1001010010 c
#595000
1k
b1001010011 c
#596000
0k
b1001010100 c
#597000
1k
b1001010101 c
#598000
0k
b1001010110 c
#599000
1k
b1001010111 c
#600000
0k
b1001011000 c
#601000
1k
b1001011001 c
#602000
0k
b1001011010 c
#603000
1k
b1001011011 c
#604000
0k
b1001011100 c
#605000
1k
b1001011101 c
#606000
0k
b1001011110 c
#607000
1k
b1001011111 c
#608000
0k
b1001100000 c
#609000
1k
b1001100001 c
#610000
0k
b1001100010 c
#611000
1k
b1001100011 c
#612000
0k
b1001100100 c
#613000
1k
b1001100101 c
#614000
0k
b1001100110 c
#615000
1k
b1001100111 c
#616000
0k
b1001101000 c
#617000
1k
b1001101001 c
#618000
0k
b1001101010 c
#619000
1k
b1001101011 c
#620000
0k
b1001101100 c
#621000
1k
b1001101101 c
#622000
0k
b1001101110 c
#623000
1k
b1001101111 c
#624000
0k
b1001110000 c
#625000
1k
b1001110001 c
#626000
0k
b1001110010 c
#627000
1k
b1001110011 c
#628000
0k
b1001110100 c
#629000
1k
b1001110101 c
#630000
0k
b1001110110 c
#631000
1k
b1001110111 c
#632000
0k
b1001111000 c
#633000
1k
b1001111001 c
#634000
0k
b1001111010 c
#635000
1k
b1001111011 c
#636000
0k
b1001111100 c
#637000
1k
b1001111101 c
#638000
0k
b1001111110 c
#639000
1k
b1001111111 c
#640000
0k
b1010000000 c
#641000
1k
b1010000001 c
#642000
0k
b1010000010 c
#643000
1k
b1010000011 c
#644000
0k
b1010000100 c
#645000
1k
b1010000101 c
#646000
0k
b1010000110 c
#647000
1k
b1010000111 c
#648000
0k
b1010001000 c
#649000
1k
b1010001001 c
#650000
0k
b1010001010 c
#651000
1k
b1010001011 c
#652000
0k
b1010001100 c
#653000
1k
b1010001101 c
#654000
0k
b1010001110 c
#655000
1k
b1010001111 c
#656000
0k
b1010010000 c
#657000
1k
b1010010001 c
#658000
0k
b1010010010 c
#659000
1k
b1010010011 c
#660000
0k
b1010010100 c
#661000
1k
b1010010101 c
#662000
0k
b1010010110 c
#663000
1k
b1010010111 c
#664000
0k
b1010011000 c
#665000
1k
b1010011001 c
#666000
0k
b1010011010 c
#667000
1k
b1010011011 c
#668000
0k
b1010011100 c
#669000
1k
b1010011101 c
#670000
0k
b1010011110 c
#671000
1k
b1010011111 c
#672000
0k
b1010100000 c
#673000
1k
b1010100001 c
#674000
0k
b1010100010 c
#675000
1k
b1010100011 c
#676000
0k
b1010100100 c
#677000
1k
b1010100101 c
#678000
0k
b1010100110 c
#679000
1k
b1010100111 c
#680000
0k
b1010101000 c
#681000
1k
b1010101001 c
#682000
0k
b1010101010 c
#683000
1k
b1010101011 c
#684000
0k
b1010101100 c
#685000
1k
b1010101101 c
#686000
0k
b1010101110 c
#687000
1k
b1010101111 c
#688000
0k
b1010110000 c
#689000
1k
b1010110001 c
#690000
0k
b1010110010 c
#691000
1k
b1010110011 c
#692000
0k
b1010110100 c
#693000
1k
b1010110101 c
#694000
0k
b1010110110 c
#695000
1k
b1010110111 c
#696000
0k
b1010111000 c
#697000
1k
b1010111001 c
#698000
0k
b1010111010 c
#699000
1k
b1010111011 c
#700000
0k
b1010111100 c
#701000
1k
b1010111101 c
#702000
0k
b1010111110 c
#703000
1k
b1010111111 c
#704000
0k
b1011000000 c
#705000
1k
b1011000001 c
#706000
0k
b1011000010 c
#707000
1k
b1011000011 c
#708000
0k
b1011000100 c
#709000
1k
b1011000101 c
#710000
0k
b1011000110 c
#711000
1k
b1011000111 c
#712000
0k
b1011001000 c
#713000
1k
b1011001001 c
#714000
0k
b1011001010 c
#715000
1k
b1011001011 c
#716000
0k
b1011001100 c
#717000
1k
b1011001101 c
#718000
0k
b1011001110 c
#719000
1k
b1011001111 c
#720000
0k
b1011010000 c
#721000
1k
b1011010001 c
#722000
0k
b1011010010 c
#723000
1k
b1011010011 c
#724000
0k
b1011010100 c
#725000
1k
b1011010101 c
#726000
0k
b1011010110 c
#727000
1k
b1011010111 c
#728000
0k
b1011011000 c
#729000
1k
b1011011001 c
#730000
0k
b1011011010 c
#731000
1k
b1011011011 c
#732000
0k
b1011011100 c
#733000
1k
b1011011101 c
#734000
0k
b1011011110 c
#735000
1k
b1011011111 c
#736000
0k
b1011100000 c
#737000
1k
b1011100001 c
#738000
0k
b1011100010 c
#739000
1k
b1011100011 c
#740000
0k
b1011100100 c
#741000
1k
b1011100101 c
#742000
0k
b1011100110 c
#743000
1k
b1011100111 c
#744000
0k
b1011101000 c
#745000
1k
b1011101001 c
#746000
0k
b1011101010 c
#747000
1k
b1011101011 c
#748000
0k
b1011101100 c
#749000
1k
b1011101101 c
#750000
0k
b1011101110 c
#751000
1k
b1011101111 c
#752000
0k
b1011110000 c
#753000
1k
b1011110001 c
#754000
0k
b1011110010 c
#755000
1k
b1011110011 c
#756000
0k
b1011110100 c
#757000
1k
b1011110101 c
#758000
0k
b1011110110 c
#759000
1k
b1011110111 c
#760000
0k
b1011111000 c
#761000
1k
b1011111001 c
#762000
0k
b1011111010 c
#763000
1k
b1011111011 c
#764000
0k
b1011111100 c
#765000
1k
b1011111101 c
#766000
0k
b1011111110 c
#767000
1k
b1011111111 c
#768000
0k
b1100000000 c
#769000
1k
b1100000001 c
#770000
0k
b1100000010 c
#771000
1k
b1100000011 c
#772000
0k
b1100000100 c
#773000
1k
b1100000101 c
#774000
0k
b1100000110 c
#775000
1k
b1100000111 c
#776000
0k
b1100001000 c
#777000
1k
b1100001001 c
#778000
0k
b1100001010 c
#779000
1k
b1100001011 c
#780000
0k
b1100001100 c
#781000
1k
b1100001101 c
#782000
0k
b1100001110 c
#783000
1k
b1100001111 c
#784000
0k
b1100010000 c
#785000
1k
b1100010001 c
#786000
0k
b1100010010 c
#787000
1k
b1100010011 c
#788000
0k
b1100010100 c
#789000
1k
b1100010101 c
#790000
0k
b1100010110 c
#791000
1k
b1100010111 c
#792000
0k
b1100011000 c
#793000
1k
b1100011001 c
#794000
0k
b1100011010 c
#795000
1k
b1100011011 c
#796000
0k
b1100011100 c
#797000
1k
b1100011101 c
#798000
0k
b1100011110 c
#799000
1k
b1100011111 c
#800000
0k
b1100100000 c
#801000
1k
b1100100001 c
#802000
0k
b1100100010 c
#803000
1k
b1100100011 c
#804000
0k
b1100100100 c
#805000
1k
b1100100101 c
#806000
0k
b1100100110 c
#807000
1k
b1100100111 c
#808000
0k
b1100101000 c
#809000
1k
b1100101001 c
#810000
0k
b1100101010 c
#811000
1k
b1100101011 c
#812000
0k
b1100101100 c
#813000
1k
b1100101101 c
#814000
0k
b1100101110 c
#815000
1k
b1100101111 c
#816000
0k
b1100110000 c
#817000
1k
b1100110001 c
#818000
0k
b1100110010 c
#819000
1k
b1100110011 c
#820000
0k
b1100110100 c
#821000
1k
b1100110101 c
#822000
0k
b1100110110 c
#823000
1k
b1100110111 c
#824000
0k
b1100111000 c
#825000
1k
b1100111001 c
#826000
0k
b1100111010 c
#827000
1k
b1100111011 c
#828000
0k
b1100111100 c
#829000
1k
b1100111101 c
#830000
0k
b1100111110 c
#831000
1k
b1100111111 c
#832000
0k
b1101000000 c
#833000
1k
b1101000001 c
#834000
0k
b1101000010 c
#835000
1k
b1101000011 c
#836000
0k
b1101000100 c
#837000
1k
b1101000101 c
#838000
0k
b1101000110 c
#839000
1k
b1101000111 c
#840000
0k
b1101001000 c
#841000
1k
b1101001001 c
#842000
0k
b1101001010 c
#843000
1k
b1101001011 c
#844000
0k
b1101001100 c
#845000
1k
b1101001101 c
#846000
0k
b1101001110 c
#847000
1k
b1101001111 c
#848000
0k
b1101010000 c
#849000
1k
b1101010001 c
#850000
0k
b1101010010 c
#851000
1k
b1101010011 c
#852000
0k
b1101010100 c
#853000
1k
b1101010101 c
#854000
0k
b1101010110 c
#855000
1k
b1101010111 c
#856000
0k
b1101011000 c
#857000
1k
b1101011001 c
#858000
0k
b1101011010 c
#859000
1k
b1101011011 c
#860000
0k
b1101011100 c
#861000
1k
b1101011101 c
#862000
0k
b1101011110 c
#863000
1k
b1101011111 c
#864000
0k
b1101100000 c
#865000
1k
b1101100001 c
#866000
0k
b1101100010 c
#867000
1k
b1101100011 c
#868000
0k
b1101100100 c
#869000
1k
b1101100101 c
#870000
0k
b1101100110 c
#871000
1k
b1101100111 c
#872000
0k
b1101101000 c
#873000
1k
b1101101001 c
#874000
0k
b1101101010 c
#875000
1k
b1101101011 c
#876000
0k
b1101101100 c
#877000
1k
b1101101101 c
#878000
0k
b1101101110 c
#879000
1k
b1101101111 c
#880000
0k
b1101110000 c
#881000
1k
b1101110001 c
#882000
0k
b1101110010 c
#883000
1k
b1101110011 c
#884000
0k
b1101110100 c
#885000
1k
b1101110101 c
#886000
0k
b1101110110 c
#887000
1k
b1101110111 c
#888000
0k
b1101111000 c
#889000
1k
b1101111001 c
#890000
0k
b1101111010 c
#891000
1k
b1101111011 c
#892000
0k
b1101111100 c
#893000
1k
b1101111101 c
#894000
0k
b1101111110 c
#895000
1k
b1101111111 c
#896000
0k
b1110000000 c
#897000
1k
b1110000001 c
#898000
0k
b1110000010 c
#899000
1k
b1110000011 c
#900000
0k
b1110000100 c
#901000
1k
b1110000101 c
#902000
0k
b1110000110 c
#903000
1k
b1110000111 c
#904000
0k
b1110001000 c
#905000
1k
b1110001001 c
#906000
0k
b1110001010 c
#907000
1k
b1110001011 c
#908000
0k
b1110001100 c
#909000
1k
b1110001101 c
#910000
0k
b1110001110 c
#911000
1k
b1110001111 c
#912000
0k
b1110010000 c
#913000
1k
b1110010001 c
#914000
0k
b1110010010 c
#915000
1k
b1110010011 c
#916000
0k
b1110010100 c
#917000
1k
b1110010101 c
#918000
0k
b1110010110 c
#919000
1k
b1110010111 c
#920000
0k
b1110011000 c
#921000
1k
b1110011001 c
#922000
0k
b1110011010 c
#923000
1k
b1110011011 c
#924000
0k
b1110011100 c
#925000
1k
b1110011101 c
#926000
0k
b1110011110 c
#927000
1k
b1110011111 c
#928000
0k
b1110100000 c
#929000
1k
b1110100001 c
#930000
0k
b1110100010 c
#931000
1k
b1110100011 c
#932000
0k
b1110100100 c
#933000
1k
b1110100101 c
#934000
0k
b1110100110 c
#935000
1k
b1110100111 c
#936000
0k
b1110101000 c
#937000
1k
b1110101001 c
#938000
0k
b1110101010 c
#939000
1k
b1110101011 c
#940000
0k
b1110101100 c
#941000
1k
b1110101101 c
#942000
0k
b1110101110 c
#943000
1k
b1110101111 c
#944000
0k
b1110110000 c
#945000
1k
b1110110001 c
#946000
0k
b1110110010 c
#947000
1k
b1110110011 c
#948000
0k
b1110110100 c
#949000
1k
b1110110101 c
#950000
0k
b1110110110 c
#951000
1k
b1110110111 c
#952000
0k
b1110111000 c
#953000
1k
b1110111001 c
#954000
0k
b1110111010 c
#955000
1k
b1110111011 c
#956000
0k
b1110111100 c
#957000
1k
b1110111101 c
#958000
0k
b1110111110 c
#959000
1k
b1110111111 c
#960000
0k
b1111000000 c
#961000
1k
b1111000001 c
#962000
0k
b1111000010 c
#963000
1k
b1111000011 c
#964000
0k
b1111000100 c
#965000
1k
b1111000101 c
#966000
0k
b1111000110 c
#967000
1k
b1111000111 c
#968000
0k
b1111001000 c
#969000
1k
b1111001001 c
#970000
0k
b1111001010 c
#971000
1k
b1111001011 c
#972000
0k
b1111001100 c
#973000
1k
b1111001101 c
#974000
0k
b1111001110 c
#975000
1k
b1111001111 c
#976000
0k
b1111010000 c
#977000
1k
b1111010001 c
#978000
0k
b1111010010 c
#979000
1k
b1111010011 c
#980000
0k
b1111010100 c
#981000
1k
b1111010101 c
#982000
0k
b1111010110 c
#983000
1k
b1111010111 c
#984000
0k
b1111011000 c
#985000
1k
b1111011001 c
#986000
0k
b1111011010 c
#987000
1k
b1111011011 c
#988000
0k
b1111011100 c
#989000
1k
b1111011101 c
#990000
0k
b1111011110 c
